Month,Car,miles driven in autonomous mode,total number of disengagements,number of automatic disengagements,average reaction time,number of manual disengagements
Sep-2014,WDD2221851A001072,107.65,44,24,0.68,20
Oct-2014,WDD2221851A001072,227.03,228,103,0.95,125
Nov-2014,WDD2221851A001072,365.3,141,67,1.71,74
Dec-2014,WDD2221851A001072,42.81,36,15,0.76,21
Jan-2015,WDD2221851A001072,29.43,48,18,0.42,30
Feb-2015,WDD2221851A001072,38.9,16,8,0.5,8
Mar-2015,WDD2221851A001072,18.3,39,31,0.89,8
Apr-2015,WDD2221851A001072,47,72,51,0.82,21
May-2015,WDD2221851A001072,55.1,34,11,0.58,23
Jun-2015,WDD2221851A001072,171.63,127,61,1.02,66
Jul-2015,WDD2221851A001072,118.82,69,30,1.12,39
Aug-2015,WDD2221851A001072,22.17,24,13,1.31,11
Sep-2015,WDD2221851A001072,19.72,50,23,1.14,27
Oct-2015,WDD2221851A001072,29.59,17,5,0.83,12
Nov-2015,WDD2221851A001072,43.5,22,11,0.4,11
Oct-2014,WDD2221851A000495,60.97,16,12,0.72,4
Nov-2014,WDD2221851A000495,341.16,48,19,0.79,29
