Month,SQ5-1,SQ5-2
15-Dec,180.6,287.3
16-Jan,124.0,131.0
16-Feb,73.4,223.9
16-Mar,53.6,49.5
16-Apr,0.0,48.1
16-May,84.7,48.1
16-Jun,0.9,150.7
16-Jul,92.0,227.1
16-Aug,57.7,95.6
16-Sep,370.2,24.4
16-Oct,455.5,121.5
16-Nov,90.5,99.7
