﻿Month,Year,Disengagements,Miles
December,2015,5,1043
January,2016,1,165
February,2016,0,20
March,2016,5,411
April,2016,2,29
May,2016,2,85
June,2016,2,88
July,2016,0,277
August,2016,0,58
September,2016,3,375
October,2016,0,263
November,2016,8,1285
