Date,Time,ID,Conditions,Locations,Weather,ElapsedTime,Type
11/19/2014,11:26 AM,LEAF #2,A route could not be generated due to a localization error. Autonomous control shut off and the driver resumed manual control of the AV.,City street,Cloudy/Dry,1,1
11/20/2014,02:24 PM,LEAF #2,"CAN data rate began to deteriorate due to high loads on the on-board computer. As a result, autonomous control disengaged and driver resumed manual control of the AV.",City street,Rainy/Wet,4,1
11/21/2014,11:31 AM,LEAF #2,"A failure occurred in the AV controller. As a result, autonomous control disengaged and driver resumed manual control of the AV.",City street,Cloudy/Dry,1,1
11/21/2014,11:31 AM,LEAF #2,"A failure occurred in the AV controller. As a result, autonomous control disengaged and driver resumed manual control of the AV.",City street,Cloudy/Dry,1,1
11/21/2014,11:32 AM,LEAF #2,"A failure occurred in the AV controller. As a result, autonomous control disengaged and driver resumed manual control of the AV.",City street,Cloudy/Dry,1,1
11/28/2014,11:15 AM,LEAF #2,"A failure occurred in the AV controller. As a result, autonomous control disengaged and driver resumed manual control of the AV.",City street,Sunny/Dry,1.2,1
11/28/2014,11:28 AM,LEAF #2,"AV did not recognize stopped vehicle in front of it. The driver overrode the system with manual brake input, causing the control to disengage.",City street,Sunny/Dry,0,2A-b
12/02/2014,02:15 PM,LEAF #2,A route could not be generated due to a localization error. Autonomous control shut off and the driver resumed manual control of the AV.,City street,Cloudy/Wet,1,1
12/03/2014,11:20 AM,LEAF #2,A route could not be generated due to a localization error. Autonomous control shut off and the driver resumed manual control of the AV.,City street,Rainy/Wet,1,1
12/03/2014,12:17 PM,LEAF #1,A problem with CAN bus data rate caused autonomous control to shut off. The driver resumed manual control of the AV.,City street,Rainy/Wet,1,1
12/03/2014,12:18 PM,LEAF #1,A problem with CAN bus data rate caused autonomous control to shut off. The driver resumed manual control of the AV.,City street,Rainy/Wet,1,1
12/03/2014,12:18 PM,LEAF #1,A problem with CAN bus data rate caused autonomous control to shut off. The driver resumed manual control of the AV.,City street,Rainy/Wet,1,1
12/03/2014,12:19 PM,LEAF #1,A problem with CAN bus data rate caused autonomous control to shut off. The driver resumed manual control of the AV.,City street,Rainy/Wet,1,1
12/03/2014,12:22 PM,LEAF #1,"A failure with AV localization caused a problem with lateral control. As a result, the driver switched off AV mode and resumed manual control of the AV.",City street,Rainy/Wet,1,1
12/03/2014,01:56 PM,LEAF #1,"Localization failed and the system could not determine its position. As a result, the driver switched off AV mode and resumed manual control.",City street,Cloudy/Wet,1,1
12/03/2014,02:00 PM,LEAF #1,A route could not be generated due to a localization error. Autonomous control shut off and the driver resumed manual control.,City street,Cloudy/Wet,1,1
12/03/2014,02:01 PM,LEAF #1,A route could not be generated due to a localization error. Autonomous control shut off and the driver resumed manual control.,City street,Cloudy/Wet,1,1
12/03/2014,03:32 PM,LEAF #1,A route could not be generated due to a localization error. Autonomous control shut off and the driver resumed manual control.,City street,Cloudy/Wet,1,1
12/05/2014,03:04 PM,LEAF #1,A route could not be generated due to a localization error. Autonomous control shut off and the driver resumed manual control.,City street,Cloudy/Dry,1,1
12/05/2014,03:36 PM,LEAF #1,A route could not be generated due to a localization error. Autonomous control shut off and the driver resumed manual control.,City street,Cloudy/Dry,1,1
12/05/2014,04:26 PM,LEAF #1,A route could not be generated due to a localization error. Autonomous control shut off and the driver resumed manual control.,City street,Cloudy/Dry,1,1
12/05/2014,04:36 PM,LEAF #1,A route could not be generated due to a localization error. Autonomous control shut off and the driver resumed manual control.,City street,Cloudy/Dry,1,1
12/09/2014,09:08 AM,LEAF #2,"A problem with CAN transmission data caused the controller to fail and autonomous control to shut off. After the failure, the driver resumed manual control.",City street,Sunny/Dry,1,1
12/09/2014,10:58 AM,LEAF #1,"A problem with CAN transmission data caused the controller to fail and autonomous control to shut off. After the failure, the driver resumed manual control.",City street,Cloudy/Dry,1,1
12/09/2014,11:11 AM,LEAF #1,"A problem with CAN transmission data caused the controller to fail and autonomous control to shut off. After the failure, the driver resumed manual control.",City street,Cloudy/Dry,1,1
12/09/2014,11:13 AM,LEAF #1,"To avoid a construction vehicle, the driver overrode the system with manual steering input, causing the control to disengage.",City street,Cloudy/Dry,0,2A-a
12/09/2014,04:13 PM,LEAF #1,"To avoid a construction vehicle, the driver overrode the system with manual steering input, causing the control to disengage.",City street,Cloudy/Dry,0,2A-a
12/12/2014,10:41 AM,LEAF #2,"A problem with CAN transmission data caused the controller to fail and autonomous control to shut off. After the failure, the driver resumed manual control.",City street,Cloudy/Wet,1,1
12/13/2014,04:32 PM,LEAF #2,"A vehicle pulling out of a parking lot was not recognized by AV perception system. The driver overrode the system with manual braking input, causing the control to disengage.",City street,Cloudy/Dry,0,2A-b
12/15/2014,11:08 AM,LEAF #2,"The AV began to merge into lane behind another vehicle very closely. For safety, the driver overrode the system with manual braking input, causing the control to disengage.",City street,Cloudy/Wet,0,2A-b
12/15/2014,12:27 PM,LEAF #2,"A vehicle pulling out of a parking lot was not recognized by AV perception system. The driver overrode the system with manual braking input, causing the control to disengage.",City street,Cloudy/Wet,0,2A-b
12/15/2014,03:51 PM,LEAF #2,"The AV did not recognize a vehicle that stopped in front of it and failed to slow down. The driver overrode the system with manual braking input, causing the control to disengage.",City street,Sunny/Dry,0,2A-b
12/15/2014,04:23 PM,LEAF #2,"A problem with CAN transmission data caused the controller to fail and autonomous control to shut off. After the failure, the driver resumed manual control.",City street,Cloudy/Dry,1,1
12/16/2014,02:47 PM,LEAF #2,"To avoid a construction vehicle, the driver overrode the system with manual steering input, causing the control to disengage.",City street,Cloudy/Dry,0,2A-a
12/17/2014,09:57 AM,LEAF #2,A route could not be generated due to a localization error. Autonomous control shut off and the driver resumed manual control.,City street,Cloudy/Wet,0,1
12/17/2014,10:13 AM,LEAF #2,A route could not be generated due to a localization error. Autonomous control shut off and the driver resumed manual control...,City street,Cloudy/Wet,1,1
12/17/2014,10:13 AM,LEAF #2,"AV estimation logic failure caused autonomous control to shut off. After the failure, the driver resumed manual control.",City street,Cloudy/Wet,1,1
12/18/2014,11:09 AM,LEAF #2,A route could not be generated due to a localization error. Autonomous control shut off and the driver resumed manual control.,City street,Cloudy/Dry,1,1
12/22/2014,11:48 AM,LEAF #1,"Localization logic failed. The driver overrode the system with manual brake input, causing the autonomous control to disengage.",City street,Sunny/Dry,0,1
01/04/2015,05:23 PM,LEAF #1,"Unknown failure caused the AV to slow to a stop. The driver overrode the system with manual acceleration input, causing the control to disengage.",City street,Clear(night)/Dry,0,1
01/05/2015,10:55 AM,LEAF #1,"Unknown failure caused the AV to slow to a stop. The driver overrode the system with manual acceleration input, causing the control to disengage.",City street,Sunny/Dry,0,1
01/05/2015,10:56 AM,LEAF #1,"Unknown failure caused the AV to slow to a stop. The driver overrode the system with manual acceleration input, causing the control to disengage.",City street,Sunny/Dry,0,1
01/05/2015,11:14 AM,LEAF #1,"Too many pedestrians and vehicles at the intersection for the system to predictably handle. As a safety measure, the driver overrode the system with manual brake input, causing the control to disengage.",City street,Sunny/Dry,0,2A
01/05/2015,03:58 PM,LEAF #1,"Departure logic failed, and the AV would not begin moving. The driver overrode the system with manual acceleration input, causing the control to disengage.",City street,Sunny/Dry,0,1
01/05/2015,04:00 PM,LEAF #1,"Departure logic failed, and the AV would not begin moving. The driver overrode the system with manual acceleration input, causing the control to disengage.",City street,Sunny/Dry,0,1
01/05/2015,04:00 PM,LEAF #1,"Departure logic failed, and the AV would not begin moving. The driver overrode the system with manual acceleration input, causing the control to disengage.",City street,Sunny/Dry,0,1
01/05/2015,04:16 PM,LEAF #1,"Unknown failure caused the AV to slow to a stop. The driver overrode the system with manual acceleration input, causing the control to disengage.",City street,Sunny/Dry,0,1
01/05/2015,04:30 PM,LEAF #1,"A vehicle stopped suddenly in front of AV at an intersection. For safety, the driver overrode the system with manual brake input, causing the control to disengage.",City street,Sunny/Dry,0,2A-b
01/05/2015,04:44 PM,LEAF #1,"Departure logic failed, and the AV would not begin moving. The driver overrode the system with manual acceleration input, causing the control to disengage.",City street,Sunny/Dry,0,1
01/05/2015,10:36 PM,LEAF #1,"While the AV was coming to a stop autonomously, another vehicle approached from the side but was undetected by the perception system. For safety, the driver overrode the system with manual braking input, causing the control to disengage.",City street,Clear(night)/Dry,0,2A-a
01/05/2015,10:44 PM,LEAF #1,"Departure logic failed, and the AV would not begin moving. The driver overrode the system with manual acceleration input, causing the control to disengage.",City street,Clear(night)/Dry,0,1
01/05/2015,10:44 PM,LEAF #1,"Departure logic failed, and the AV would not begin moving. The driver overrode the system with manual acceleration input, causing the control to disengage.",City street,Clear(night)/Dry,0,1
01/05/2015,11:57 PM,LEAF #1,"Departure logic failed, and the AV would not begin moving. The driver overrode the system with manual acceleration input, causing the control to disengage.",City street,Clear(night)/Dry,0,1
01/06/2015,11:38 AM,LEAF #1,"Departure logic failed, and the AV would not begin moving. The driver overrode the system with manual acceleration input, causing the control to disengage.",City street,Sunny/Dry,0,1
01/06/2015,11:40 AM,LEAF #1,"Departure logic failed, and the AV would not begin moving. The driver overrode the system with manual acceleration input, causing the control to disengage.",City street,Sunny/Dry,0,1
01/06/2015,11:41 AM,LEAF #1,"Departure logic failed, and the AV would not begin moving. The driver overrode the system with manual acceleration input, causing the control to disengage.",City street,Sunny/Dry,0,1
01/06/2015,06:15 PM,LEAF #1,"Departure logic failed, and the AV would not begin moving. The driver overrode the system with manual acceleration input, causing the control to disengage.",City street,Clear(night)/Dry,0,1
01/06/2015,06:21 PM,LEAF #1,"Departure logic failed, and the AV would not begin moving. The driver overrode the system with manual acceleration input, causing the control to disengage.",City street,Clear(night)/Dry,0,1
01/06/2015,06:26 PM,LEAF #1,"Departure logic failed, and the AV would not begin moving. The driver overrode the system with manual acceleration input causing the control to disengage.",City street,Clear(night)/Dry,0,1
01/06/2015,10:07 PM,LEAF #1,Generation of route goal failed causing the AV to come to a stop. The driver overrode the system with manual acceleration input and resumed manual control.,City street,Clear(night)/Dry,0,1
01/06/2015,10:23 PM,LEAF #1,"Departure logic failed, and the AV would not begin moving. The driver overrode the system with manual acceleration input, causing the control to disengage.",City street,Clear(night)/Dry,0,1
01/06/2015,10:40 PM,LEAF #1,"AV position estimation failure caused the AV to begin traveling outside of its lane. The driver overrode the system with manual steering input, causing the control to disengage.",City street,Clear(night)/Dry,0,1
01/07/2015,08:37 AM,LEAF #1,"AV position estimation failure caused the AV to begin traveling outside of its lane. The driver overrode the system with manual steering input, causing the control to disengage.",City street,Sunny/Dry,0,1
01/07/2015,08:38 AM,LEAF #1,"Departure logic failed, and the AV would not begin moving. The driver overrode the system with manual acceleration input, causing the control to disengage.",City street,Sunny/Dry,0,1
01/07/2015,08:38 AM,LEAF #1,"Departure logic failed, and the AV would not begin moving. The driver overrode the system with manual acceleration input, causing the control to disengage.",City street,Sunny/Dry,0,1
01/07/2015,08:40 AM,LEAF #1,"A vehicle stopped suddenly in front of AV at an intersection. For safety, the driver overrode the system with manual brake input, causing the control to disengage.",City street,Sunny/Dry,0,2A-b
01/07/2015,08:45 AM,LEAF #1,"Departure logic failed, and the AV would not begin moving. The driver overrode the system with manual acceleration input, causing the control to disengage.",City street,Sunny/Dry,0,1
01/07/2015,08:52 AM,LEAF #1,"AV position estimation failure caused the AV to begin traveling outside of its lane. The driver overrode the system with manual steering input, causing the control to disengage.",City street,Sunny/Dry,0,1
01/07/2015,09:00 AM,LEAF #1,"Departure logic failed, and the AV would not begin moving. The driver overrode the system with manual acceleration input, causing the control to disengage.",City street,Sunny/Dry,0,1
01/07/2015,09:00 AM,LEAF #1,A route could not be generated due to a localization error. Autonomous control shut off and the driver resumed manual control of the AV.,City street,Sunny/Dry,0,1
10/17/2015,09:40 AM,Q50#1,"After the AV turned right at the intersection, the recognition system lost the trajectory of the preceding vehicle. Control was disengaged and the driver resumed manual control.",City street,Cloudy/Dry,1,1
10/17/2015,02:59 PM,Q50#1,"When the AV was turning onto a ramp with a small curve, the recognition system lost the trajectory of preceding vehicle. Control was disengaged and the driver resumed manual control.",City and highway,Cloudy/Dry,1,1
10/17/2015,03:10 PM,Q50#1,"When the AV was turning onto a ramp with a small curve, the recognition system lost the trajectory of preceding vehicle. Control was disengaged and the driver resumed manual control.",City and highway,Cloudy/Dry,1,1
10/17/2015,05:20 PM,Q50#1,"When the AV was turning onto a ramp with a small curve, the recognition system lost the trajectory of preceding vehicle. Control was disengaged and the driver resumed manual control.",City and highway,Sunny/Dry,1,1
10/20/2015,03:07 PM,Q50#1,"When the AV was turning onto a ramp with a small curve, the recognition system lost the trajectory of preceding vehicle. Control was disengaged and the driver resumed manual control.",City and highway,Sunny/Dry,1,1
10/21/2015,09:45 AM,Q50#1,"When the AV was turning onto a ramp with a small curve, the recognition system lost the trajectory of preceding vehicle. Control was disengaged and the driver resumed manual control.",City and highway,Sunny/Dry,1,1
10/21/2015,04:43 PM,Q50#1,Recognition system lost the preceding vehicle stopped at the intersection. Control was disengaged and the driver resumed manual control.,City and highway,Sunny/Dry,1,2A-b
10/22/2015,09:57 AM,Q50#1,"When the AV was turning onto a ramp with a small curve, the recognition system lost the trajectory of preceding vehicle. Control was disengaged and the driver resumed manual control.",City and highway,Sunny/Dry,1,1
10/23/2015,10:36 AM,Q50#1,"When the AV was turning onto a ramp with a small curve, the recognition system lost the trajectory of preceding vehicle. Control was disengaged and the driver resumed manual control.",City and highway,Sunny/Dry,1,1
10/23/2015,04:28 PM,Q50#1,The AV was slowly encroaching on the preceding vehicle. The driver took over the braking operation immediately for safety.,City and highway,Sunny/Dry,1,2A-b
10/23/2015,04:29 PM,Q50#1,The AV was slowly encroaching on the preceding vehicle. The driver took over the braking operation immediately for safety.,City and highway,Sunny/Dry,1,2A-b
10/23/2015,04:45 PM,Q50#1,"Departure logic failed, and the AV would not begin moving. The driver overrode the system with manual acceleration input, causing the control to disengage.",City and highway,Sunny/Dry,1,1
10/24/2015,10:08 AM,Q50#1,"After the AV turned right at the intersection, the recognition system lost the trajectory of the preceding vehicle. Control was disengaged and the driver resumed manual control.",City and highway,Sunny/Dry,1,1
10/24/2015,01:41 PM,Q50#1,"Departure logic failed, and the AV would not begin moving. The driver overrode the system with manual acceleration input, causing the control to disengage.",City and highway,Sunny/Dry,1,1
10/24/2015,01:47 PM,Q50#1,"When the AV was turning onto a ramp with a small curve, the recognition system lost the trajectory of preceding vehicle. Control was disengaged and the driver resumed manual control.",City and highway,Sunny/Dry,1,1
10/24/2015,01:53 PM,Q50#1,Recognition system lost track of the preceding vehicle when the preceding vehicle stopped for the red light at the intersection. Control was disengaged and the driver resumed manual control.,City and highway,Sunny/Dry,1,2A-a
10/24/2015,01:56 PM,Q50#1,"After the AV turned right at the intersection, the recognition system lost the trajectory of the preceding vehicle. Control was disengaged and the driver resumed manual control.",City and highway,Sunny/Dry,1,1
10/24/2015,02:14 PM,Q50#1,"After the AV turned right at the intersection, the recognition system lost the trajectory of the preceding vehicle. Control was disengaged and the driver resumed manual control..",City and highway,Sunny/Dry,1,1
10/24/2015,02:27 PM,Q50#1,"After the AV turned left at the intersection, the recognition system lost the trajectory of the preceding vehicle. Control was disengaged and the driver resumed manual control.",City and highway,Sunny/Dry,1,1
10/24/2015,02:29 PM,Q50#1,"When the AV was turning onto the small curve on the ramp, the recognition system lost the trajectory of preceding vehicle. Control was disengaged and the driver resumed manual control.",City and highway,Sunny/Dry,1,1
10/24/2015,02:31 PM,Q50#1,The recognition system lost the trajectory of the preceding vehicle. The driver resumed manual control.,City and highway,Sunny/Dry,1,1
10/24/2015,02:35 PM,Q50#1,"Because the driver felt a delay in deceleration, the driver took over the brake operation. As a result, the autonomous control was disengaged.",City and highway,Sunny/Dry,0,2A-b
10/25/2015,09:41 AM,Q50#1,"Departure logic failed, and the AV would not begin moving. The driver overrode the system with manual acceleration input, causing the control to disengage.",City and highway,Sunny/Dry,1,1
10/25/2015,09:45 AM,Q50#1,"Departure logic failed, and the AV would not begin moving. The driver overrode the system with manual acceleration input, causing the control to disengage.",City and highway,Sunny/Dry,1,1
10/25/2015,10:40 AM,Q50#1,"Departure logic failed, and the AV would not begin moving. The driver overrode the system with manual acceleration input, causing the control to disengage.",City and highway,Sunny/Dry,1,1
10/27/2015,10:56 AM,Q50#2,"System incorrectly recognized the preceding vehicle as a vehicle in the next lane. For safety, the driver took over the braking operation immediately.",City and highway,Cloudy/Dry,0,2A-b
10/27/2015,11:17 AM,Q50#2,"While the AV was turning right at the intersection, the recognition system lost the trajectory of the preceding vehicle. Control was disengaged and the driver resumed manual control.",City and highway,Cloudy/Dry,1,1
10/28/2015,01:24 PM,Q50#2,The recognition system lost the trajectory of the preceding vehicle. Control was disengaged and the driver resumed manual control.,City and highway,Sunny/Dry,1,1
11/07/2015,05:32 PM,LEAF #1,"While the AV was merging autonomously, another vehicle approached in front of the AV suddenly. It was undetected by perception system. For safety, the driver overrode the system with manual braking input, causing the control to disengage",City Street Route 237,Sunny/Dry,0,2A-b
11/25/2015,10:27 AM,Q50#2,"Because the preceding vehicle trajectory was detected further to the left than in reality, our AV drove too close to the left side of the lane. The AV did not enter the incorrect lane but the driver resumed manual control for safety.",City and highway,Cloudy/Dry,1,2A
11/25/2015,11:16 AM,Q50#2,"While the AV was turning left at the intersection, the recognition system lost the trajectory of the preceding vehicle. As a result, control was disengaged, and the driver resumed manual control.",City and highway,Cloudy/Dry,1,2A-a
11/26/2015,11:16 AM,Q50#2,"While the AV was turning left at the intersection, the recognition system lost the trajectory of the preceding vehicle. The driver resumed manual control.",City and highway,Sunny/Dry,1,1
11/26/2015,11:21 AM,Q50#2,"Recognition system lost the preceding vehicle at an intersection. As a result, control was disengaged and the driver resumed manual control",City and highway,Sunny/Dry,1,2A-b
11/26/2015,01:32 PM,Q50#2,"As a preceding vehicle was decelerating for a red light, the AV Recognition system lost track of it. As a result, brake control was released and the AV encroached on the preceding vehicle.",City and highway,Sunny/Dry,1,2A-b
11/26/2015,01:36 PM,Q50#2,"As a preceding vehicle was decelerating for a red light, the AV Recognition system lost track of it. As a result, brake control was released and the AV encroached on the preceding vehicle.",City and highway,Sunny/Dry,1,2A-b
11/30/2015,10:03 AM,Q50#1,"When the AV was turning onto a ramp with a small curve, the recognition system lost the trajectory of preceding vehicle. The driver resumed manual control.",City and highway,Cloudy/Dry,1,1
