Month,Disengagements,AutonomousMiles
12/15,2,38855.6
01/16,6,38612.1
02/16,7,19869.8
03/16,7,27452.9
04/16,6,38898.1
05/16,10,59489
06/16,9,53475.4
07/16,24,74345.8
08/16,17,83704.9
09/16,12,72765.1
10/16,15,72064.8
11/16,9,56334.2
